<svg xmlns="http://www.w3.org/2000/svg" width="22" height="16" viewBox="0 0 22 16">
    <path fill="#FFF" fill-rule="nonzero" d="M21.154 3.868c-.472 0-.854.345-.854.77 0 .755-.446 1.418-1.113 1.785C18.44 2.978 15.07.37 11.037.37a8.969 8.969 0 0 0-3.922.89L5.912.177a.748.748 0 0 0-.74-.13c-.249.093-.428.311-.428.554v2.346c-.474.516-.885 1.063-1.214 1.749h-2.1C.675 4.695 0 5.218 0 5.898v3.184c0 .68.676 1.265 1.43 1.265h1.757a8.379 8.379 0 0 0 1.557 2.445v2.576c0 .331.333.632.7.632h1.789a.64.64 0 0 0 .642-.632v-.559a8.907 8.907 0 0 0 3.132.557 8.91 8.91 0 0 0 3.13-.556v.558c0 .331.336.632.703.632h1.79c.366 0 .638-.3.638-.632v-2.574c1.233-1.274 2.01-2.927 2.06-4.738C20.88 7.553 22 6.211 22 4.639c0-.426-.374-.771-.846-.771zM6.668 6.89c-.681 0-1.235-.5-1.235-1.114 0-.615.554-1.114 1.235-1.114.68 0 1.234.5 1.234 1.114 0 .614-.554 1.114-1.234 1.114zm7.02-4.198c-.099.27-.377.44-.675.44a.78.78 0 0 1-.224-.033 6.18 6.18 0 0 0-3.503 0c-.373.112-.776-.07-.9-.407-.123-.337.08-.7.452-.812.71-.213 1.45-.32 2.2-.32.75 0 1.49.108 2.2.32.372.111.574.475.45.812z"/>
</svg>
